%YAML 1.1
%TAG !u! tag:unity3d.com,2011:
--- !u!1045 &1
EditorBuildSettings:
  m_ObjectHideFlags: 0
  serializedVersion: 2
  m_Scenes:
  - enabled: 1
    path: Assets/Scenes/StartScene.unity
    guid: 2cda990e2423bbf4892e6590ba056729
  - enabled: 1
    path: Assets/Scenes/GameScene.unity
    guid: 1ff36e48da209104f9017766e74f5335
  - enabled: 1
    path: Assets/Scenes/ShopScene.unity
    guid: 154867e72cda7474eb660b8347330b49
  - enabled: 1
    path: Assets/Scenes/TutorialScene.unity
    guid: 95d77cbfb2cc44e48816565783317467
  - enabled: 1
    path: Assets/Scenes/MainMenu.unity
    guid: 555166bb01c76ad4ea12658c42c6c66c
  - enabled: 1
    path: Assets/Scenes/BattleScene.unity
    guid: 21dacc017c193084c839488868f73b57
  m_configObjects: {}
